<?xml version="1.0" encoding="utf-8"?>
<!-- Generator: Adobe Illustrator 22.0.0, SVG Export Plug-In . SVG Version: 6.00 Build 0)  -->
<svg version="1.1" id="Layer_1" xmlns="http://www.w3.org/2000/svg" xmlns:xlink="http://www.w3.org/1999/xlink" x="0px" y="0px"
	 viewBox="0 0 120 120" style="enable-background:new 0 0 120 120;" xml:space="preserve">
<style type="text/css">
	.st0{fill:#FFFFFF;}
</style>
<g>
	<path class="st0" d="M60.1,1.1c-32.6,0-59,26.4-59,59c0,32.6,26.4,59,59,59s59-26.4,59-59C119,27.5,92.6,1.1,60.1,1.1z M60.1,107
		c-25.9,0-46.9-21-46.9-46.9c0-25.9,21-46.9,46.9-46.9c25.9,0,46.9,21,46.9,46.9C107,86,86,107,60.1,107z"/>
	<g>
		<path id="XMLID_274_" class="st0" d="M44.3,68.6v23.5h14.2v-9.3c0-3.9,3.2-7.1,7.1-7.1c3.9,0,7.1,3.2,7.1,7.1v9.3h14.2V68.6H44.3z
			"/>
		<path id="XMLID_272_" class="st0" d="M94,63.1l-56.7,0.2l24.6-17.2c2.2-1.6,5.2-1.6,7.4,0L94,63.1z"/>
		<path id="XMLID_226_" class="st0" d="M30,36.8c-0.5,0-1,0-1.5,0c-0.2,0.1-0.3,0.1-0.5,0c-0.4-0.1-0.7-0.1-1.1-0.2
			c-0.3-0.1-0.5-0.1-0.6-0.4c0.1-0.5,0.6-0.6,0.9-0.9c0.2-0.3,0.6-0.4,0.9-0.4c0.6-0.2,1.1-0.3,1.7-0.5c0.3-0.1,0.5-0.3,0.8-0.4
			c0.2,0,0.3-0.1,0.5-0.1c0.6-0.1,1.2-0.2,1.7-0.3c0.4,0,0.9,0,1.3,0c0.3,0,0.6,0,0.9,0.1c0.4,0,0.9,0.1,1.3,0.2
			c0.2,0.1,0.4,0.1,0.6,0.1c0.4,0.1,0.7,0.2,1.1,0.4c0.2,0.1,0.4,0.2,0.6,0.3c0.3,0.1,0.7,0.3,1,0.5c0.2,0.1,0.3,0.2,0.5,0.3
			c0.3,0.2,0.5,0.4,0.9,0.6c-0.1-0.5-0.3-0.8-0.5-1.2c-0.1-0.2-0.2-0.3-0.3-0.5c-0.2-0.3-0.4-0.7-0.6-1c-0.1-0.2-0.3-0.4-0.4-0.6
			c-0.2-0.3-0.4-0.5-0.6-0.8c-0.1-0.2-0.2-0.3-0.4-0.5c-0.3-0.3-0.5-0.6-0.7-0.9c-0.1-0.2-0.3-0.3-0.4-0.5c-0.2-0.3-0.5-0.5-0.7-0.8
			c-0.1-0.2-0.3-0.3-0.4-0.5c-0.3-0.3-0.5-0.6-0.7-0.9c-0.1-0.1-0.2-0.3-0.1-0.5c0-0.2,0.2-0.4,0.4-0.5c0.2-0.3,0.4-0.1,0.6,0
			c0.4,0.1,0.7,0.2,1.1,0.2c0.2,0,0.5,0,0.7,0.2c0.3,0.2,0.6,0.3,0.9,0.5c0.2,0.1,0.4,0,0.5,0.3c0.3,0.2,0.5,0.5,0.8,0.7
			c0.2,0.1,0.3,0.2,0.4,0.4c0.2,0.3,0.5,0.6,0.7,0.9c0.2,0.1,0.2,0.3,0.3,0.5c0.2,0.4,0.4,0.7,0.5,1.1c0.4,0.2,0.2,0.6,0.3,0.8
			c0.1,0.5,0.3,1,0.3,1.5c0.2,0.3,0.1,0.6,0.2,0.9c0.1,0.1,0.1,0.1,0.2,0c0.4-3.1,1.4-5.8,4.3-7.4c0.1-0.1,0.2-0.1,0.3-0.2
			c0.2-0.4,0.7-0.3,1-0.4c0.5-0.1,1-0.2,1.6-0.4c0.4-0.3,0.8,0,1.2-0.1c0.3,0,0.6,0,0.9,0c0.2-0.1,0.3-0.1,0.5,0
			c0.4,0.1,0.9,0.1,1.3,0.2c0.2,0.1,0.2,0.4,0.1,0.6c-0.1,0.1-0.1,0.2-0.2,0.3c-0.3,0.2-0.6,0.3-0.9,0.5c-0.8,0.3-1.6,0.7-2.4,1.3
			c-0.5,0.3-1,0.7-1.4,1c-1.6,1.4-2.8,3-3.6,4.9c-0.2,0.3-0.3,0.6-0.4,1c0,0.1,0,0.1,0,0.2c0.2-0.1,0.4-0.3,0.6-0.5
			c0.9-0.7,1.8-1.4,2.8-1.9c0.4-0.2,0.8-0.3,1.2-0.4c0.5-0.1,1-0.3,1.6-0.4c0.2-0.1,0.4-0.2,0.6-0.1c0.5,0,1,0,1.5,0
			c0.2-0.1,0.3-0.1,0.5,0.1c0.4,0.1,0.9,0.2,1.3,0.3c0.2,0,0.3,0,0.4,0.1c0.4,0.2,0.8,0.3,1.1,0.5c0.2,0,0.4,0.1,0.5,0.3
			c0.3,0.2,0.6,0.4,0.9,0.6c0.1,0,0.3,0.1,0.3,0.2c0.3,0.3,0.7,0.5,1,0.8c0.3,0,0.3,0.3,0.4,0.4c0.2,0.3,0.5,0.6,0.7,0.8
			c0.3,0.1,0.3,0.4,0.3,0.6c-0.1,0.2-0.2,0.4-0.4,0.4c-0.2,0-0.4-0.1-0.6-0.2c-0.3-0.1-0.6-0.2-0.9-0.3c-0.2-0.1-0.5-0.1-0.8-0.2
			c-0.4-0.1-0.8-0.2-1.2-0.3c-0.2,0-0.4-0.1-0.6-0.1c-0.3,0-0.7-0.1-1-0.1c-0.3,0-0.5-0.1-0.8-0.1c-0.3,0-0.6,0-0.9,0
			c-0.6,0-1.2,0-1.7,0.1c-0.3,0-0.6,0.1-0.9,0.1c-0.2,0-0.4,0.1-0.6,0.1c-0.6,0-1.2,0.2-1.8,0.4c-0.4,0.1-0.7,0.2-1.1,0.3
			c-0.8,0.2-1.6,0.7-2.3,0.9c0.4-0.1,1-0.1,1.5,0c0.3,0,0.5,0,0.8,0.1c0.4,0.1,0.7,0.1,1.1,0.2c0.2,0.1,0.5,0.2,0.7,0.2
			c0.4,0.1,0.7,0.3,1.1,0.5c0.2,0.1,0.3,0.2,0.5,0.3c0.3,0.2,0.6,0.3,0.8,0.6c0.2,0.2,0.4,0.3,0.5,0.4c0.2,0.3,0.5,0.5,0.7,0.8
			c0.1,0.1,0.2,0.3,0.3,0.4c0.2,0.3,0.5,0.7,0.7,1c0.1,0.2,0.2,0.3,0.3,0.5c0.2,0.4,0.3,0.8,0.4,1.2c0,0.2,0.2,0.4,0.2,0.7
			c-0.1,0.3-0.2,0.5-0.5,0.7c-0.2,0.1-0.4,0.1-0.5-0.1c-0.3-0.2-0.6-0.5-0.9-0.7c-0.2,0-0.3-0.1-0.5-0.3c-0.3-0.2-0.6-0.4-0.9-0.7
			c-0.1-0.1-0.3-0.2-0.4-0.3c-0.3-0.2-0.6-0.4-0.9-0.7c-0.1-0.1-0.3-0.2-0.4-0.3c-0.3-0.2-0.6-0.3-0.9-0.5c-0.2-0.1-0.4-0.2-0.5-0.3
			c-0.3-0.2-0.7-0.4-1-0.5c-0.2-0.1-0.3-0.1-0.5-0.2c-0.4-0.1-0.7-0.3-1.1-0.3c0,0-0.1,0-0.1,0c-0.9-0.1-0.9-0.1-0.6,0.8
			c0.2,0.4,0.3,0.8,0.4,1.2c0.1,0.3,0.2,0.6,0.3,1c0.1,0.3,0.2,0.7,0.3,1c0.1,0.4,0.2,0.7,0.3,1.1c0.1,0.4,0.2,0.7,0.3,1.1
			c0,0.2,0.1,0.4,0.2,0.6c0.1,0.5,0.2,0.9,0.4,1.4c0,0.2,0.1,0.5,0.2,0.7c0.2,0.5,0.2,1,0.4,1.5c0,0.5,0,1,0.1,1.5
			c-0.4,0.4-0.8,0.8-1.2,1.2c-0.2,0.2-0.3,0.2-0.4-0.1c-0.3-0.4,0-0.8-0.3-1.2c0-0.3-0.1-0.5-0.1-0.8c-0.2-0.2-0.2-0.4-0.2-0.7
			c-0.1-0.5-0.2-1.1-0.4-1.6c-0.3-0.2,0-0.5-0.2-0.7c0-0.5-0.2-0.9-0.3-1.3c-0.2-0.1-0.2-0.3-0.2-0.5c-0.1-0.5-0.2-1-0.4-1.5
			c-0.3-0.2-0.1-0.5-0.2-0.7c-0.1-0.4-0.2-0.8-0.4-1.2c-0.2-0.1-0.1-0.4-0.2-0.6c-0.1-0.4-0.3-0.8-0.4-1.2c-0.2-0.2-0.3-0.1-0.4,0.1
			c-1.1,1.7-2.3,3.3-3.7,4.7c-0.2,0.2-0.3,0.3-0.6,0.4c-0.8,0.7-1.6,1.3-2.4,2c-0.2,0.2-0.4,0.3-0.7,0.2c-0.1,0-0.2-0.1-0.2-0.3
			c0.2-1.2,0.7-2.3,1.2-3.5c0.2-0.9,0.8-1.6,1.3-2.2c0.8-1,1.6-2,2.8-2.5c-0.3,0-0.6,0.1-0.8,0.2c-0.3,0.2-0.7-0.1-1.1,0.1
			c-0.5,0.1-1.1,0.3-1.6,0.5c-0.3,0.2-0.6,0.3-0.9,0.3c-0.7,0.2-1.3,0.5-2,0.8c-0.3,0.3-0.7,0.4-1.1,0.5c-0.7,0.2-1.3,0.6-2,0.9
			c-0.3,0.3-0.6,0.4-1,0.5c-0.6,0.1-0.7,0-0.5-0.8c0-0.7,0.3-1.2,0.7-1.8c0.4-0.6,0.8-1.2,1.3-1.7c0.4-0.5,0.9-0.9,1.4-1.2
			c0.6-0.4,1.3-0.6,2-0.8c0.2-0.1,0.4-0.1,0.6-0.1c0.4,0,0.8-0.1,1.2-0.1c0.3,0.1,0.6,0,0.9,0c0.7,0.1,1.4,0.1,2.1,0.3
			c-0.5-0.3-0.8-0.7-1.3-0.9c-0.2-0.1-0.4-0.2-0.6-0.3c-0.3-0.2-0.6-0.3-1-0.4c-0.2-0.1-0.5-0.2-0.7-0.2c-0.3-0.1-0.7-0.2-1-0.2
			c-0.2,0-0.5,0-0.7-0.2c-0.5-0.1-0.9-0.1-1.4,0c-0.2,0.1-0.4,0.2-0.6,0l0,0c-0.6,0-1.2,0.1-1.8,0.2C30.3,36.8,30.2,36.9,30,36.8z"
			/>
	</g>
</g>
</svg>
